…
    ## # A tibble: 6 × 10
    ##   id          date        prcp  snow  snwd  tmax  tmin  year month   day
    ##   <chr>       <date>     <dbl> <int> <dbl> <dbl> <dbl> <dbl> <dbl> <int>
    ## 1 US1NYAB0001 2007-11-01    NA    NA    NA    NA    NA  2007    11     1
    ## 2 US1NYAB0001 2007-11-02    NA    NA    NA    NA    NA  2007    11     2
    ## 3 US1NYAB0001 2007-11-03    NA    NA    NA    NA    NA  2007    11     3
    ## 4 US1NYAB0001 2007-11-04    NA    NA    NA    NA    NA  2007    11     4
    ## 5 US1NYAB0001 2007-11-05    NA    NA    NA    NA    NA  2007    11     5
    ## 6 US1NYAB0001 2007-11-06    NA    NA    NA    NA    NA  2007    11     6

``` r
print(noaa_clean)
```

    ## # A tibble: 2,595,176 × 10
    ##    id          date        prcp  snow  snwd  tmax  tmin  year month   day
    ##    <chr>       <date>     <dbl> <int> <dbl> <dbl> <dbl> <dbl> <dbl> <int>
    ##  1 US1NYAB0001 2007-11-01    NA    NA    NA    NA    NA  2007    11     1
    ##  2 US1NYAB0001 2007-11-02    NA    NA    NA    NA    NA  2007    11     2
    ##  3 US1NYAB0001 2007-11-03    NA    NA    NA    NA    NA  2007    11     3
    ##  4 US1NYAB0001 2007-11-04    NA    NA    NA    NA    NA  2007    11     4
    ##  5 US1NYAB0001 2007-11-05    NA    NA    NA    NA    NA  2007    11     5
    ##  6 US1NYAB0001 2007-11-06    NA    NA    NA    NA    NA  2007    11     6
    ##  7 US1NYAB0001 2007-11-07    NA    NA    NA    NA    NA  2007    11     7
    ##  8 US1NYAB0001 2007-11-08    NA    NA    NA    NA    NA  2007    11     8
    ##  9 US1NYAB0001 2007-11-09    NA    NA    NA    NA    NA  2007    11     9
    ## 10 US1NYAB0001 2007-11-10    NA    NA    NA    NA    NA  2007    11    10
    ## # ℹ 2,595,166 more rows
…
